@startuml
class PizzaService {
    + PizzaService(pizzaFactoryStoreDatabaseSettings:IOptions<PizzaFactoryStoreDatabaseSettings>)
    + CookOnePizza(pizza:Pizza) : CookedPizza
    + GetCookedPizzas() : Task<List<CookedPizza>>
}
PizzaService --> "_cookedPizzaMongoDBRepository" ICookedPizzaRepository
@enduml
