@startuml
class Pizza {
    + label : string
    + name : string
    + additionalIngredients : IEnumerable<string>?
    + Pizza(label:string, additionalIngredients:IEnumerable<string>?)
    + Cook(repository:ICookedPizzaRepository) : CookedPizza
}
@enduml
