@startuml
class PizzasController {
    + PizzasController(pizzaService:PizzaService)
    + <<async>> Get() : Task<ActionResult<List<CookedPizza>>>
    + Post(pizza:Pizza) : IActionResult
}
ControllerBase <|-- PizzasController
PizzasController --> "_pizzaService" PizzaService
@enduml
